Place,Age_0_4_x_Male,Age_0_4_x_Female,Age_5_9_x_Male,Age_5_9_x_Female,Age_10_14_x_Male,Age_10_14_x_Female,Age_15_19_x_Male,Age_15_19_x_Female,Age_20_24_x_Male,Age_20_24_x_Female,Age_25_29_x_Male,Age_25_29_x_Female,Age_30_34_x_Male,Age_30_34_x_Female,Age_35_39_x_Male,Age_35_39_x_Female,Age_40_44_x_Male,Age_40_44_x_Female,Age_45_49_x_Male,Age_45_49_x_Female,Age_50_54_x_Male,Age_50_54_x_Female,Age_55_59_x_Male,Age_55_59_x_Female,Age_60_64_x_Male,Age_60_64_x_Female,Age_65_69_x_Male,Age_65_69_x_Female,Age_70_74_x_Male,Age_70_74_x_Female,Age_75_79_x_Male,Age_75_79_x_Female,Age_80_84_x_Male,Age_80_84_x_Female,Age_85_plus_x_Male,Age_85_plus_x_Female,Total_x_Male,Total_x_Female
Australia,752138,712637,771055,731590,717635,679557,727677,693918,795423,771369,824077,840526,839822,864030,773139,788545,777703,805556,773171,808284,748951,774601,709119,745215,632353,667045,581236,607762,431321,456390,307444,345216,204024,256527,180353,306491,11546637,11855244
Queensland,21792,32752,152032,144429,162809,154329,153680,145413,151192,145089,159283,157576,158127,162626,159731,166218,149442,155777,157707,165198,157523,165459,151016,157712,142723,149475,127555,133130,119671,122528,88924,91484,60823,65261,47868,66853,2321885,2381302
